images/96707142_3538929646.jpg
images/50567962_6045994327.jpg
images/51091044_3486849416.jpg
images/38552135_2122457546.jpg
images/57933149_11837935973.jpg
images/39585572_5151898468.jpg
images/41814686_978754656.jpg
images/98003320_12106601884.jpg
images/47058715_3625029597.jpg
images/60161280_4586649391.jpg
