images/50567962_6045994327.jpg
images/96789550_6435726869.jpg
images/39598026_13855927694.jpg
images/87446292_3971192822.jpg
images/38552135_2122457546.jpg
images/57933149_11837935973.jpg
images/43274786_5333458956.jpg
images/02957488_2184292184.jpg
images/77653698_4129853031.jpg
images/73660716_1347978321.jpg
