images/30442266_2401730436.jpg
images/75416390_4269610736.jpg
images/73324956_7004414541.jpg
images/93341989_396310999.jpg
images/68663909_1356782012.jpg
images/43274786_5333458956.jpg
images/81282261_3885204620.jpg
images/18128778_2284948455.jpg
images/68541133_442050280.jpg
images/16841636_7028528545.jpg
