images/67808324_3504700051.jpg
images/15865748_8030415.jpg
images/93341989_396310999.jpg
images/60584745_2207571072.jpg
images/99119091_3503925030.jpg
images/82946251_4121478019.jpg
images/96399538_6003485006.jpg
images/43875738_3181309891.jpg
images/89726595_2807643525.jpg
images/68541133_442050280.jpg
