images/96707142_3538929646.jpg
images/30442266_2401730436.jpg
images/10980851_159911107.jpg
images/67808324_3504700051.jpg
images/10372335_3056167102.jpg
images/21746238_6963652171.jpg
images/39598026_13855927694.jpg
images/93341989_396310999.jpg
images/32809961_8274055477.jpg
images/38552135_2122457546.jpg
images/60584745_2207571072.jpg
images/22514439_6984334267.jpg
images/58207157_8155269003.jpg
images/98281727_3845840334.jpg
images/02957488_2184292184.jpg
images/75519914_2079302390.jpg
images/74182138_8276852729.jpg
images/67090050_2810319680.jpg
images/95833461_5456965982.jpg
images/29316928_4862042124.jpg
images/49118808_3956125368.jpg
images/89726595_2807643525.jpg
images/98003320_12106601884.jpg
images/02085496_6952371977.jpg
images/47058715_3625029597.jpg
