images/75416390_4269610736.jpg
images/67808324_3504700051.jpg
images/96789550_6435726869.jpg
images/71295362_4051449754.jpg
images/66926938_4371324505.jpg
images/87446292_3971192822.jpg
images/31068391_3498955714.jpg
images/51091044_3486849416.jpg
images/61311510_9540677856.jpg
images/38552135_2122457546.jpg
images/68663909_1356782012.jpg
images/60584745_2207571072.jpg
images/35719192_2298527061.jpg
images/39852107_3868092306.jpg
images/55597679_2718818848.jpg
images/58207157_8155269003.jpg
images/99128163_9106466955.jpg
images/02957488_2184292184.jpg
images/75519914_2079302390.jpg
images/88524579_4122163320.jpg
images/73660716_1347978321.jpg
images/82946251_4121478019.jpg
images/96399538_6003485006.jpg
images/47058715_3625029597.jpg
images/76618720_2817562248.jpg
