visibility/vis_76618720_2817562248.txt
visibility/vis_60161280_4586649391.txt
visibility/vis_16841636_7028528545.txt
visibility/vis_95167672_2639854316.txt
visibility/vis_47058715_3625029597.txt
visibility/vis_43644606_8225847170.txt
visibility/vis_99665578_12349574443.txt
visibility/vis_36444123_11342374496.txt
visibility/vis_31938889_10141160664.txt
visibility/vis_96202520_5911138576.txt
visibility/vis_86731151_442052253.txt
visibility/vis_68541133_442050280.txt
visibility/vis_63858075_3812078922.txt
visibility/vis_18128778_2284948455.txt
visibility/vis_02085496_6952371977.txt
visibility/vis_98003320_12106601884.txt
visibility/vis_89726595_2807643525.txt
visibility/vis_17295357_9106075285.txt
visibility/vis_49118808_3956125368.txt
visibility/vis_24292909_11972893303.txt
visibility/vis_06083741_6775741943.txt
visibility/vis_43875738_3181309891.txt
visibility/vis_29316928_4862042124.txt
visibility/vis_10265353_3838484249.txt
visibility/vis_96399538_6003485006.txt
visibility/vis_82946251_4121478019.txt
visibility/vis_57605706_3978951760.txt
visibility/vis_95833461_5456965982.txt
visibility/vis_73660716_1347978321.txt
visibility/vis_37175111_6635304477.txt
visibility/vis_81282261_3885204620.txt
visibility/vis_77653698_4129853031.txt
visibility/vis_67090050_2810319680.txt
visibility/vis_88524579_4122163320.txt
visibility/vis_74182138_8276852729.txt
visibility/vis_61702125_8353062682.txt
visibility/vis_99119091_3503925030.txt
visibility/vis_75519914_2079302390.txt
visibility/vis_02957488_2184292184.txt
visibility/vis_98281727_3845840334.txt
visibility/vis_92124082_180660201.txt
visibility/vis_41814686_978754656.txt
visibility/vis_99128163_9106466955.txt
visibility/vis_58207157_8155269003.txt
visibility/vis_20559588_6565810191.txt
visibility/vis_81935357_9658163122.txt
visibility/vis_39585572_5151898468.txt
visibility/vis_26753320_3383540592.txt
visibility/vis_55597679_2718818848.txt
visibility/vis_43274786_5333458956.txt
visibility/vis_39852107_3868092306.txt
visibility/vis_59914221_4605768617.txt
visibility/vis_22514439_6984334267.txt
visibility/vis_18698491_4586522698.txt
visibility/vis_73447273_415773485.txt
visibility/vis_57933149_11837935973.txt
visibility/vis_35719192_2298527061.txt
visibility/vis_60584745_2207571072.txt
visibility/vis_36251322_181460308.txt
visibility/vis_03903474_1471484089.txt
visibility/vis_75588968_8560140410.txt
visibility/vis_67770719_8270986474.txt
visibility/vis_93755222_3159769379.txt
visibility/vis_68663909_1356782012.txt
visibility/vis_38552135_2122457546.txt
visibility/vis_61311510_9540677856.txt
visibility/vis_91867724_400350040.txt
visibility/vis_67741421_496100843.txt
visibility/vis_51091044_3486849416.txt
visibility/vis_36940211_2500226864.txt
visibility/vis_32809961_8274055477.txt
visibility/vis_31068391_3498955714.txt
visibility/vis_95245243_234467169.txt
visibility/vis_87446292_3971192822.txt
visibility/vis_68704605_8963148518.txt
visibility/vis_93341989_396310999.txt
visibility/vis_66926938_4371324505.txt
visibility/vis_71295362_4051449754.txt
visibility/vis_15865748_8030415.txt
visibility/vis_10169127_5408342646.txt
visibility/vis_73324956_7004414541.txt
visibility/vis_39598026_13855927694.txt
visibility/vis_02928139_3448003521.txt
visibility/vis_88074069_5867013385.txt
visibility/vis_53515910_7697309520.txt
visibility/vis_47698078_3766965066.txt
visibility/vis_96789550_6435726869.txt
visibility/vis_91530634_2958536780.txt
visibility/vis_44120379_8371960244.txt
visibility/vis_50567962_6045994327.txt
visibility/vis_21746238_6963652171.txt
visibility/vis_10372335_3056167102.txt
visibility/vis_67808324_3504700051.txt
visibility/vis_66950305_12204207406.txt
visibility/vis_10980851_159911107.txt
visibility/vis_75416390_4269610736.txt
visibility/vis_64966234_8900198268.txt
visibility/vis_30442266_2401730436.txt
visibility/vis_96707142_3538929646.txt
visibility/vis_62239750_5135505236.txt
