0.0
714.0
400.0
0.0
888.0
639.0
0.0
606.0
1483.0
0.0
0.0
1754.0
853.0
896.0
611.0
0.0
0.0
1141.0
813.0
491.0
989.0
942.0
394.0
448.0
0.0
0.0
728.0
0.0
0.0
597.0
0.0
0.0
459.0
0.0
0.0
726.0
0.0
0.0
336.0
0.0
0.0
329.0
0.0
228.0
801.0
0.0
315.0
1076.0
536.0
629.0
501.0
948.0
598.0
1922.0
0.0
635.0
722.0
300.0
499.0
389.0
0.0
782.0
0.0
459.0
1033.0
683.0
0.0
923.0
1658.0
1061.0
215.0
792.0
0.0
0.0
254.0
0.0
1567.0
-1.0
702.0
143.0
0.0
439.0
789.0
0.0
216.0
1781.0
0.0
0.0
974.0
762.0
613.0
1347.0
1141.0
1364.0
275.0
0.0
681.0
542.0
0.0
221.0
