0.0
0.0
388.0
0.0
0.0
527.0
0.0
618.0
659.0
0.0
0.0
0.0
0.0
358.0
403.0
0.0
0.0
537.0
0.0
438.0
470.0
-1.0
460.0
348.0
0.0
0.0
0.0
0.0
0.0
627.0
0.0
0.0
0.0
0.0
0.0
0.0
0.0
0.0
365.0
0.0
0.0
313.0
0.0
0.0
456.0
0.0
307.0
1022.0
0.0
611.0
537.0
0.0
293.0
892.0
0.0
0.0
306.0
0.0
574.0
579.0
0.0
0.0
0.0
0.0
421.0
0.0
0.0
0.0
0.0
945.0
160.0
1038.0
0.0
0.0
0.0
0.0
0.0
0.0
655.0
130.0
0.0
506.0
715.0
0.0
0.0
0.0
0.0
0.0
0.0
0.0
593.0
739.0
0.0
0.0
345.0
0.0
0.0
689.0
0.0
0.0
