0.0
439.0
240.0
0.0
477.0
356.0
0.0
396.0
556.0
0.0
0.0
0.0
586.0
302.0
323.0
0.0
0.0
501.0
532.0
350.0
361.0
688.0
275.0
240.0
0.0
0.0
475.0
0.0
0.0
518.0
0.0
0.0
0.0
0.0
0.0
336.0
0.0
0.0
255.0
0.0
0.0
229.0
0.0
222.0
378.0
0.0
229.0
576.0
326.0
456.0
311.0
513.0
254.0
692.0
0.0
424.0
233.0
251.0
410.0
331.0
0.0
0.0
0.0
0.0
336.0
469.0
0.0
0.0
543.0
666.0
126.0
624.0
0.0
0.0
0.0
0.0
0.0
0.0
510.0
96.0
0.0
349.0
450.0
0.0
159.0
532.0
0.0
0.0
808.0
318.0
463.0
532.0
0.0
0.0
258.0
0.0
-1.0
408.0
0.0
196.0
