246.0
430.0
648.0
0.0
431.0
271.0
0.0
518.0
356.0
0.0
0.0
343.0
347.0
85.0
80.0
0.0
0.0
266.0
506.0
198.0
211.0
376.0
319.0
2011.0
0.0
-1.0
345.0
0.0
236.0
233.0
530.0
658.0
55.0
0.0
571.0
210.0
0.0
599.0
88.0
0.0
0.0
606.0
0.0
108.0
191.0
322.0
387.0
509.0
575.0
309.0
317.0
437.0
67.0
491.0
379.0
826.0
68.0
2029.0
211.0
469.0
499.0
354.0
0.0
526.0
222.0
471.0
0.0
194.0
340.0
388.0
767.0
449.0
0.0
0.0
624.0
0.0
415.0
444.0
347.0
456.0
561.0
385.0
332.0
0.0
1253.0
358.0
0.0
0.0
459.0
140.0
337.0
317.0
216.0
380.0
953.0
287.0
274.0
435.0
0.0
1139.0
