0.0
766.0
440.0
0.0
628.0
342.0
0.0
576.0
335.0
0.0
0.0
335.0
482.0
136.0
140.0
0.0
0.0
210.0
642.0
196.0
179.0
398.0
268.0
344.0
0.0
0.0
292.0
0.0
0.0
179.0
0.0
0.0
125.0
0.0
0.0
375.0
0.0
0.0
111.0
0.0
0.0
320.0
0.0
135.0
159.0
0.0
462.0
651.0
630.0
391.0
263.0
536.0
77.0
372.0
-1.0
761.0
108.0
356.0
182.0
850.0
0.0
351.0
0.0
877.0
134.0
347.0
0.0
173.0
264.0
388.0
166.0
565.0
0.0
0.0
610.0
0.0
440.0
413.0
288.0
147.0
442.0
555.0
387.0
0.0
247.0
283.0
0.0
0.0
446.0
44.0
377.0
317.0
190.0
377.0
516.0
0.0
200.0
665.0
0.0
225.0
