0.0
327.0
236.0
0.0
388.0
290.0
0.0
285.0
671.0
0.0
0.0
0.0
513.0
621.0
553.0
0.0
0.0
719.0
365.0
269.0
826.0
516.0
206.0
216.0
0.0
0.0
369.0
0.0
0.0
397.0
0.0
0.0
491.0
0.0
0.0
349.0
0.0
0.0
265.0
0.0
0.0
152.0
0.0
212.0
613.0
0.0
140.0
523.0
242.0
393.0
296.0
467.0
546.0
894.0
0.0
302.0
620.0
218.0
355.0
226.0
0.0
448.0
0.0
0.0
676.0
394.0
0.0
511.0
988.0
626.0
122.0
498.0
0.0
0.0
0.0
0.0
908.0
0.0
419.0
78.0
0.0
168.0
367.0
0.0
136.0
1030.0
0.0
0.0
495.0
453.0
334.0
881.0
-1.0
811.0
229.0
0.0
407.0
290.0
0.0
148.0
