0.0
209.0
114.0
0.0
204.0
216.0
0.0
138.0
304.0
0.0
0.0
0.0
229.0
490.0
534.0
0.0
0.0
420.0
224.0
174.0
358.0
334.0
118.0
61.0
0.0
0.0
212.0
0.0
0.0
226.0
0.0
0.0
-1.0
0.0
0.0
341.0
0.0
0.0
163.0
0.0
0.0
43.0
0.0
111.0
394.0
0.0
84.0
322.0
96.0
229.0
163.0
266.0
385.0
493.0
0.0
141.0
397.0
97.0
195.0
101.0
0.0
0.0
0.0
0.0
372.0
156.0
0.0
0.0
484.0
345.0
28.0
305.0
0.0
0.0
0.0
0.0
514.0
0.0
281.0
37.0
0.0
106.0
231.0
0.0
62.0
547.0
0.0
0.0
296.0
313.0
143.0
629.0
0.0
300.0
107.0
0.0
240.0
115.0
0.0
62.0
