0.0
0.0
0.0
0.0
0.0
0.0
0.0
0.0
0.0
0.0
0.0
0.0
0.0
0.0
319.0
0.0
0.0
0.0
0.0
0.0
382.0
0.0
0.0
298.0
0.0
0.0
0.0
0.0
0.0
0.0
0.0
0.0
0.0
0.0
0.0
0.0
0.0
0.0
226.0
0.0
0.0
0.0
0.0
0.0
0.0
0.0
0.0
0.0
0.0
0.0
0.0
0.0
0.0
0.0
0.0
0.0
0.0
0.0
0.0
419.0
0.0
0.0
0.0
0.0
0.0
0.0
0.0
0.0
0.0
0.0
0.0
0.0
0.0
0.0
0.0
0.0
0.0
0.0
-1.0
151.0
0.0
0.0
441.0
0.0
0.0
0.0
0.0
0.0
0.0
0.0
0.0
592.0
0.0
0.0
310.0
0.0
0.0
0.0
0.0
0.0
