0.0
0.0
200.0
0.0
0.0
0.0
0.0
0.0
0.0
0.0
0.0
0.0
0.0
0.0
508.0
0.0
0.0
-1.0
0.0
0.0
618.0
0.0
0.0
236.0
0.0
0.0
0.0
0.0
0.0
0.0
0.0
0.0
0.0
0.0
0.0
0.0
0.0
0.0
290.0
0.0
0.0
0.0
0.0
0.0
0.0
0.0
0.0
0.0
0.0
0.0
0.0
0.0
0.0
0.0
0.0
0.0
0.0
0.0
0.0
190.0
0.0
0.0
0.0
0.0
0.0
0.0
0.0
0.0
0.0
0.0
0.0
0.0
0.0
0.0
0.0
0.0
0.0
0.0
413.0
75.0
0.0
0.0
471.0
0.0
0.0
0.0
0.0
0.0
0.0
0.0
0.0
934.0
0.0
0.0
211.0
0.0
0.0
0.0
0.0
0.0
